MessageSid:SM4886c73a6ca9b224592b72ce4f3b51b5
SmsSid:SM4886c73a6ca9b224592b72ce4f3b51b5
AccountSid:AC14b347d1267fef5ccbbf1e37713af18e
MessagingServiceSid:
From: 55672911
To: 19522602969
Body:This is App Logics Test
NumMedia:0
=================
MessageSid:SM4886c73a6ca9b224592b72ce4f3b51b5
SmsSid:SM4886c73a6ca9b224592b72ce4f3b51b5
AccountSid:AC14b347d1267fef5ccbbf1e37713af18e
MessagingServiceSid:
From: 55672911
To: 19522602969
Body:This is App Logics Test
NumMedia:0
=================
